{
    "mongo" : {
        "host": "172.21.2.89",
        "port": "27017",
        "db": "repeatsdb3"
    },
    "paths": {
        "absolute": "./",
        "exon-module": "modules/exon-data/",
        "disease-modules": "modules/disease-data/",
        "repeatsdb3-data": "data/repeatsdb3-data/",
        "pdb-data": "data/pdb-data/",
        "tmalign-data": "data/tmalign-data/",
        "uniprot-data": "data/uniprot-data/",
        "intact-data": "data/intact-data/",
        "mobidb-data": "data/mobidb-data/",
        "output": "output-test/",
        "output-datasets": "output-datasets/",
        "output-plots": "output-plots/"
    }
}
